^C:\USERS\USER\SOURCE\REPOS\PART 2. 8\PART 2. 8\PART 2. 8.CPP
C:\USERS\USER\SOURCE\REPOS\PART 2. 8\PART 2. 8\DEBUG\VC142.PDB
C:\USERS\USER\SOURCE\REPOS\PART 2. 8\PART 2. 8\DEBUG\VC142.IDB
C:\USERS\USER\SOURCE\REPOS\PART 2. 8\PART 2. 8\DEBUG\PART 2. 8.OBJ
